Nom_de_Photo,Limbe_inferieur_OD,Reflet_OD,Limbe_superieur_OD,Limbe_inferieur_OG,Reflet_OG,Limbe_superieur_OG,Ratio_OG,Ratio_OD
P3_B10_2,404,381,368,405,382,367,0.39473684210526316,0.3611111111111111
P3_B15_2,410,384,370,410,384,370,0.35,0.35
P3_B20_2,404,379,368,408,384,368,0.4,0.3055555555555556
P3_B25_2,410,373,370,415,384,373,0.2619047619047619,0.075
P3_B5_2,402,381,366,404,381,368,0.3611111111111111,0.4166666666666667
P3_H10_2,397,379,359,397,379,359,0.5263157894736842,0.5263157894736842
P3_H15_2,370,356,334,373,355,335,0.5263157894736842,0.6111111111111112
P3_H20_2,389,376,351,390,376,354,0.6111111111111112,0.6578947368421053
P3_H25_2,391,375,349,386,374,350,0.6666666666666666,0.6190476190476191
P3_H5_2,399,380,361,400,381,364,0.4722222222222222,0.5
P3_PP_2,400,381,364,402,381,366,0.4166666666666667,0.4722222222222222
